{
    "task": "bargain_object",
    "type": "get_str_from_text",
    "modf_text": {
		"low_case": true,
		"replace": {
			"standart": {
				"eng_rus": true,
				"str_int_to_int": true,
				"trim": true
			},
			"regex_replace": [ {
				"old": ["ё"],
				"new": "е"
			}, {
				"old": ["(?<!\\w)эт\\. ?"],
				"new": "этажный "
			},
			{
                "old": ["(?<!\\w)тер ?\\- ?и"],
                "new": "территори"
            }, {
                "old": ["(?<!\\w)не больш"],
                "new": "небольш"
            },
            {
                "old": ["участок\\-дач[а-я]+"],
                "new": "дача"
            }, {
				"old": ["на участке,"],
				"new": "на участке"
			},
            {
				"old": ["кв\\s?\\.\\s?м", "м\\s?\\.\\s?кв"],
				"new": "квм"
			}, {
				"old": ["\\(","\\)"],
				"new": " "
			},
			{
				"old": [": +\\-"],
				"new": ""
			},{
				"old": ["(?<!\\w)уже(?!\\w)"],
				"new": ""
			},{
                "old": [
                    "\\U0001F600-\\U0001F64F",
                    "\\U0001F300-\\U0001F5FF",
                    "\\U0001F680-\\U0001F6FF",
                    "\\U0001F1E0-\\U0001F1FF"],
                "new": ""
            },{
				"old": [" +"],
				"new": " "
            },{
                "old": [":"," ?\\- ?",
                    "[\u002D\u058A\u05BE\u1400\u1806\u2010\\-\u2015\u2E17\u2E1A\u2E3A\u2E3B\u2E40\u301C\u3030\u30A0\uFE31\uFE32\uFE58\uFE63]"],
				"new": " "
			},{
				"old": ["\\d *?(ми|ти|(р?[уе])?х)? *?этаж[а-я]+"],
				"new": " "
			},{
				"old": ["\\d+ *?(ми|ти|(р?[уе])?х)? *?(комнатн|уровнев)[а-я]+"],
				"new": " "
			},{
				"old": [" +"],
				"new": " "
			},{
				"old": ["благоустрое[н]{1,2}[ыйиоемгаях]{2,3}(, | и )?", "блоч[ыйиоемгаях]{2,3}(, | и )?", "(?<![а-я])больш[ыйиоемгаях]{2,3}(, | и )?", "бревенчат[ыйиоемгаях]{2,3}(, | и )?",
					"бытов[ыйиоемгаях]{2,3}(, | и )?", "деревя[н]{1,2}[ыйиоемгаях]{2,3}(, | и )?", "оформле[н]{1,2}[ыйиоемгаях]{2,3}(, | и )?",
					"великолепн[ыйиоемгаях]{2,3}(, | и )?", "вpеме[н]{1,2}[ыйиоемгаях]{2,3}(, | и )?", "гостев[ыйиоемгаях]{2,3}(, | и )?", "дачн[ыйиоемгаях]{2,3}(, | и )?",
					"зарегистрирова[н]{1,2}[ыйиоемгаях]{1,3}(, | и )?", "(?<![а-я])жил[ыйиоемгаях]{2,3}(, | и )?", "контейнерн[ыйиоемгаях]{2,3}(, | и )?", "крепк[ыйиоемгаях]{2,3}(, | и )?",
					"каркасн[ыйиоемгаях]{2,3}(, | и )?", "нов[ыйиоемгаях]{2,3}(, | и )?", "не ?больш[ыйиоемгаях]{2,3}(, | и )?", "нежил[ыйиоемгаях]{2,3}(, | и )?",
					"обыкнове[н]{1,2}[ыйиоемгаях]{2,3}(, | и )?", "тепл[ыйиоемгаях]{2,3}(, | и )?", "просторн[ыйиоемгаях]{2,3}(, | и )?",
					"производстве[н]{1,2}[ыйиоемгаях]{2,3}(, | и )?", "прост[ыйиоемгаях]{2,3}(, | и )?", "сама[н]{1,2}[ыйиоемгаях]{2,3}(, | и )?",
					"складск[ыйиоемгаях]{2,3}(, | и )?", "строительн[ыйиоемгаях]{2,3}(, | и )?", "уютн[ыйиоемгаях]{2,3}(, | и )?", "хорош[ыйиоемгаях]{2,3}(, | и )?",
					"хозяйстве[н]{1,2}[ыйиоемгаях]{2,3}(, | и )?", "мета[л]{1,2}ическ[ыйиоемгаях]{2,3}(, | и )?", "основательн[ыйиоемгаях]{2,3}(, | и )?",
					"прочн[ыйиоемгаях]{2,3}(, | и )?", "утепле[н]{1,2}[ыйиоемгаях]{2,3}(, | и )?", "шикарн[ыйиоемгаях]{2,3}(, | и )?","(?<![а-я])плитн[ыйиоемгаях]{2,3}(, | и )?",
					"дополнительн[ыйиоемгаях]{2,3}(, | и )?", "узаконе[н]{1,2}[ыйиоемгаях]{2,3}(, | и )?", "утеплен[н]{1,2}[ыйиоемгаях]{2,3}(, | и )?",
					"маленьк[ийомегах]{2,3}(, | и )?", "(?<!\\w)крыт[ыйаяеогх]{2,3}(, | и )?", "ровн[ыйоаеяуюахмиг]{1,3}(, | и )?",
					"(?<![а-я])сво[ийяе](?![а-я])", "(одно|двух|трех)этажн[ыйоаеяуюахмиг]{1,3}(, | и )?", "(потрясающ|углов)[ыйоаеяуюахмиг]{1,3}(, | и )?",
					"роскошн[ыйоаеяуюахмиг]{1,3}(, | и )?"
				],
				"new": ""
			}, {
				"old": ["армирова[н]{1,2}[ыйиоемгаях]{2,3}(, | и )?", "монолитно[\\s\\-]?бето[н]{1,2}[ыйиоемгаях]{2,3}(, | и )?", "бето[н]{1,2}[ыйиоемгаях]{2,3}(, | и )?",
					"добротн[ыйиоемгаях]{2,3}(, | и )?", "добросовестн[ыйиоемгаях]{2,3}(, | и )?", "готов[ыйиоемгаях]{2,3}(, | и )?", "заглубле[н]{1,2}[ыйиоемгаях]{2,3}(, | и )?",
					"заливн[ыйиоемгаях]{2,3}(, | и )?", "заложе[н]{1,2}[ыйиоемгаях]{2,3}(, | и )?", "качестве[н]{1,2}[ыйиоемгаях]{2,3}(, | и )?", "красивошн[ыйиоемгаях]{2,3}(, | и )?",
					"ленточн[ыйиоемгаях]{2,3}(, | и )?", "свайн[ыйиоемгаях]{2,3}(, | и )?", "монолитн[ыйиоемгаях]{2,3}(, | и )?", "мощн[ыйиоемгаях]{2,3}(, | и )?",
					"многослойн[ыйиоемгаях]{2,3}(, | и )?", "столбчат[ыйиоемгаях]{2,3}(, | и )?", "подготовле[н]{1,2}[ыйиоемгаях]{2,3}(, | и )?",
					"прямоугольн[ыйиоемгаях]{2,3}(, | и )?", "свайно[\\s\\-]?ростверков[ыйиоемгаях]{2,3}(, | и )?", "сплошн[ыйиоемгаях]{2,3}(, | и )?",
					"существующ[ыйиоемгаях]{2,3}(, | и )?", "точечн[ыйиоемгаях]{2,3}(, | и )?", "продуманн[ыйиоемгаях]{2,3}(, | и )?",
					"надежн[ыйиоемгаях]{2,3}(, | и )?", "(?<![а-я])необычной архитектуры(, | и )?", "красив[ыйиоемгаях]{2,3}(, | и )?",
					"отдельно ?стоящ[ыйиоемгаях]{2,3}(, | и )?", "точечн[ыйиоемгаях]{2,3}(, | и )?", "кирпичн[ыйиоемгаях]{2,3}(, | и )?",
					"капитальн[ыйиоемгаях]{2,3}(, | и )?","отличн[ыйиоемгаях]{2,3}(, | и )?","каменн[ыйиоемгаях]{2,3}(, | и )?","прекрасн[ыйиоемгаях]{2,3}(, | и )?",
					"энергоэффективнн[ыйиоемгаях]{2,3}(, | и )?","газифицированн[ыйиоемгаях]{2,3}(, | и )?", "(?<![а-я])очень(?![а-я])",
					"современн[ыйиоемгаях]{2,3}(, | и )?", "(?<![а-я])полностью(?![а-я])","элитн[ыйиоемгаях]{2,3}(, | и )?","пожил[ыйиоемгаях]{2,3}(, | и )?",
					"штукатуренн[ыйиоемгаях]{2,3}(, | и )?","загородн[ыйиоемгаях]{2,3}(, | и )?","блочн[ыйиоемгаях]{2,3}(, | и )?",
					"классн[ыйиоемгаях]{2,3}(, | и )?","обжит[ыйиоемгаях]{2,3}(, | и )?"
				],
				"new": ""
			},{
				"old": [" +"],
				"new": " "
			},{
				"old": ["(?<![а-я])(здани|сооружени|постро[йе]к|строени|дом(ик)?|вилл|дач|особняк)[а-я]{0,3}(?![а-я])"],
				"new": "здание"
			},{
				"old": ["[0-9] ?- ?(ы?й|го) этаж(?![а-я])",
						"((?<![0-9])[0-9] ?[\///][0-9] ?|доля ?){1,2}в? ?(здание|коттедж)",
						"половина здание"],
				"new": " часть здания"
			},{
                "old": ["(?<!\\w)дом[а-я]* (занятий|отдыха|(детского )?творчества|быта)",
                        "(?<!\\w)дом(ом|а|у)? +[0-9]+(?![0-9])(?!кв)(?!м)(?! кв)(?! м)",
                        "(?<!\\w)[а-я]+ские +дачи(?!\\w)", "(заселенные +|жилые +|многоэтажные +|многоквартирные +)+дома?(?!\\w)",
                        "(разрешен[а-я]+ +использовани|назначени)[а-я]+:.*?(?=\\. )",
                        "(?<!\\w)(рядом|по границ(е|ам)) .*?(?=\\.[ $А-Я])",
                        "(?<!\\w)возможно +строительств.*?(?=\\.[ $А-Я])",
                        "коттедж[а-я]*(\\. ?| )посело?к[а-я]*",
                        "(?<!\\w)дома +стоят(?!\\w)"],
                "new": ""
            },{
                "old": [" +"],
                "new": " "
            },{
				"old": ["(?<!\\w)возможна +(покупка +|продажа +){1,2}(земли|(земельного +)?участка) +без +(построек|строений)"],
				"new": ""
			},{
				"old": [
					"(?<!соседи )(вынужден[аы]?|хот(им|ят)|хочет|собира(е[тм]|ют)ся|готов[аы]?) продать",
					"(прода(ются|ют|ю|ется|ет|ем|тся|м|дим|жа|жу|же|жи)|представл(ятся|ят|ю|ется|ет|ем|тся|м|яем)|предлага(ются|ют|ю|ется|ет|ем|тся|м|)|сда(ются|ют|ю|ется|ет|ем|тся|м|дим|ст|сдут)|аренд(уются|уют|уется|ует|уем|а|е|у)|реализ(уются|уют|ую|уется|ует|уем|аци[яюи]))",
					"(?<![а-я])вашему вниманию", "собственник получит"],
				"new": "продается"
			},{
                "old": [" +"],
                "new": " "
            },{
                "old": ["\\s+"],
                "new": " "
            }, {
				"old": ["(?<![а-я])земл[яю](?![а-я])", 
					"(?<![а-я])участка(?![а-я])", "(?<![а-я])земельн(ый|ого) участка?(?![а-я])"],
				"new": "участок"
			},{
				"old": ["(продается|^) ?, ?([а-я])"],
				"new": "\\1 \\2"
			},{
				"old": ["^[ .,]+(?=[а-я])"],
				"new": ""
			}
			]
		}
	},
	"regex": [{
		"name": "Здание",
		"regex_find": "(^|продается )(здание|участок( | ?, ?)со? здание|участок ?[.,] ?здание)",
		"regex_neg": "(^|продается )(коттедж|таунхаус)",
		"type": "str"
	},{
		"name": "Часть здания",
		"regex_find":"(^|продается )часть здани[ея]",
		"type": "str"
	},{
		"name": "Квартира",
		"regex_find": "(^|продается )квартир(а|у|ы|ой)(?![а-я])",
		"type": "str"
	},{
		"name": "Земельный участок",
		"regex_find": "(^|продается )участок",
		"regex_neg": "(^|продается )((здание|участок( | ?, ?)со? здание|участок ?[.,] ?здание)|коттедж|таунхаус|часть здания)",
		"type": "str"
	},{
		"name": "Таунхаус",
		"regex_find": "(^|продается )таунхаус",
		"type": "str"
	},{
		"name": "Коттедж",
		"regex_find": "(^|продается )коттедж",
		"type": "str"
	}
	]
}