{
	"task": "test1",
	"type": "get_many_float_from_text",
	"modf_text": {
		"low_case": true,
		"replace": {
			"standart": {
				"eng_rus": true,
				"str_int_to_int": true,
				"trim": true
			},
			"regex_replace": [{
				"old": ["(?<![а-я])на \\d{1,2} ?\\. ?\\d{1,2} ?\\. ?(\\d{2}|\\d{4})(?![0-9])"],
				"new": ""
			},{
				"old": ["\\d{1,2}:\\d{1,2}:\\d+:\\d+"],
				"new": ""
			},{
				"old": ["\\d{1,2}:\\d{1,2}:\\d+"],
				"new": ""
			},{
				"old": ["(?<!\\d)\\d{1,2}[.:]\\d{1,2}[.:]\\d{2} *?\\d{2} *?\\d{3}([.:]\\d{1,4}(?!\\d))?"],
				"new": ""
			},{
				"old": ["\\+ *?[\\\\\/] *?\\- *?\\d+([.,]\\d+)?(?!\\d)"],
				"new": ""
			},{
				"old": ["(?<!\\w)снт *?\\w+[ -]*?\\d{1,2}(?!\\d)"],
				"new": ""
			},{
				"old": ["(?<!\\d)(\\d{1,2}),(\\d{3})\\.00(?!\\d)"],
				"new": "\\1\\2"
			},{
                "old": ["высота ворот", "ворота высотой", "пандуса с?\\s?высотой", "ворот: высота"],
                "new": ""
            }, {
                "old": ["между перекрытиями", "от пола до потолка", "от перекрытия до перекрытия",
                    "более",
                    "на \\d\\-?о?м?\\s?этаже", " \\d\\-?(ого)?\\s?этажа", "\\d\\-?й?\\sэтаж[ае]?",
                    "на (первом|втором|третьем) этаже", "(первый|второй|третий) этаж",
                    "в \\d[-]?х?\\s?этажн(ых|ом)\\sздани(и|ях)",
                    "\\d\\s?эт[\\.]?",
                    "в чистоте", "от пола до низа несущих конструкций", "до низа несущих конструкций", "основного склада",
                    "до ферм перекрытий", "в производственной части", "от пола до несущих конструкций", " до балок перекрытия",
                    "до низа металлоконструкций", "в коньке", "в здании", "от пола до антресоли", "для стеллажного хранения",
                    "достигает", "составляет",
                    "от антресоли до фермы балок", "на обоих этажах", "до плит перекрытия", "части", "до коммуникаций",
                    "-ми", "-х", "-ти"
                ],
                "new": ""
            },{
                "old": [
					"стоимость (аренды|продажи)( [а-я])+",
					"(про|от)да(м|ю|[ею]тся) за(?![а-я])"
                ],
                "new": "цена"
            },{
                "old": ["(?<![а-я])рубл(ей|я|ь)(?!\\w)","₽",
                "(?<![а-я])р(?!\\w)", "ru[brв]"],
                "new": "руб"
            },{
                "old": ["(?<![а-я])р\\. ?", "руб\\. ?","₽\\. ?"],
                "new": "руб "
            },{
                "old": ["(?<=\\d[,.])(\\s)(?=\\d{1,2} ?руб)", "(?<=\\d\\d[,.])(\\s)(?=\\d{1,2} ?руб)"],
                "new": ""
            },{
                "old": [":"],
                "new": " "
            },{
                "old": ["–", "—", "(?<=[0-9]) и (?=[0-9])", "\\.\\.\\.", "~", "(?<=\\d)(\/)(?=\\d)"],
                "new": "-"
            },{
                "old": [" +"],
                "new": " "
            },{
                "old": ["(?<=[0-9]) (?=[0-9]{3}(?!\\d))"],
                "new": ""
            },                 {
                "old": ["(?<=[0-9]) ?[.,] ?(?=[0-9])"],
                "new": ","
            },{
                "old": ["\\.(?! )"],
                "new": ". "
            },{
                "old": [" ?кв(\\.|\/|адр(атн?)?\\.|адр(ат(н(ых)?)?)?)? ?м(етр(ов|а)?|\/|\\.)?",
                    " ?м(етр(ов|а)|\/|\\.)? ?кв(\\.|адр(атн?)?\\.|адр(ат(н(ых)?)?)?)?",
                    " ?м(2|\u00b2)"],
                "new": " квм"
            },{
                "old": ["тысяча?(?![а-я])",
                        "(?<![а-я])тыс\\."],
                "new": "тыс"
            },{
				"old": ["(?<![а-я])(тыс|млн) сотка(?![а-я])"],
				"new": "\\1 руб сотка"
			},{
                "old": [
                    "(?<![а-я])сот(?!\\w)",
                    "(?<![а-я])сот,",
                    "(?<![а-я])с(от|-)ка",
                    "(?<![а-я])с(от|-)ки",
                    "(?<![а-я])соток",
                    "(?<![а-я])с(от|-)ку"
                ],
                "new": "сотка"
            },{
                "old": ["(?<![а-я])сот\\. ?"],
                "new": "сотка "
            },{
                "old": [" ?гектар(а|ов)?",
                    " ?гек(?![а-я])",
                    " ?(?<![а-я])га(?![а-я])"],
                "new": " гектар"
            },{
                "old": [" ?гек\\. ?"],
                "new": " гектар "
            },{
                "old": ["миллион(ов|а)?(?![а-я])"],
                "new": "млн"
            },{
                "old": ["(?<![а-я])млн\\. ?", "(?<![а-я])мил\\. ?"],
                "new": "млн "
            },{
                "old": ["(?<![а-я])т\\.? руб",
                    "(?<![а-я])т\\.руб"],
                "new": "тыс руб "
            },{
                "old": ["(?<![а-я])месяц(а)?(?![а-я])",
                        "(?<![а-я])мес(?![а-я])"],
                "new": "месяц"
            },{
				"old": ["(?<![а-я])мес\\. ?"],
				"new": "месяц "
			},{
                "old": ["(?<![а-я])ч(?![а-я])",
                        "(?<![а-я])часа?(?![а-я])",
                        "(?<![а-я])ч\\.(?![а-я])"],
                "new": "час"
            },{
                "old": ["(?<![а-я])г(?![а-я])",
                        "(?<![а-я])г\\.",
                        "(?<![а-я])года?(?![а-я])"],
                "new": "год"
            },{
                "old": ["(?<![а-я])сут(?![а-я])",
                        "(?<![а-я])сут\\.", "(?<![а-я])сутки(?![а-я])",
                        "(?<![а-я])суток(?![а-я])","(?<![а-я])ден(?![а-я])",
                        "(?<![а-я])ден\\.(?![а-я])",
                        "(?<![а-я])дня(?![а-я])"],
                "new": "день"
            },{
                "old": ["(\/|\\\\)\\."],
                "new": "\/"
            },{
                "old": ["(?<=[0-9]),([0-9]+),(?=[0-9])"],
                "new": "\\1"
            },{
                "old": ["(?<=[0-9]),(?=[0-9]{2}0)"],
                "new":""
            },{
				"old": ["(?<![0-9])[0-9]+,?[0-9]*? ?- ?(?=[0-9]+)"],
				"new": ""
			},{
                "old": ["[\\-:=]"],
                "new": ""
            },{
                "old": ["(квм|сотка|день|год|час|гектар)(?=[0-9])"],
                "new": "\\1 "
            },{
                "old": ["\/ *?(в|за)(?![а-я])"],
                "new": "\/"
            },{
                "old": [" +"],
                "new": " "
            },{
                "old": ["(взнос|сбор)(а(ми?)?|ы|о[мв])?(?![а-я]) ?"],
                "new": "взнос "
            },{
                "old": ["примерно", "мизерн[а-я]{2,3}", "(?<![а-я])около(?![а-я])",
					"(арендн[а-я]{2,3}|(?<![а-я])за аренду) +взнос",
					"(?<![а-я])на сегодняшний момент(?![а-я])",
					"сотавля[ею]т", "(?<![а-я])не дороже(?![а-я])",
					"(?<![а-я])(?<![0-9] )всего(?![а-я])|(?<![а-я])всего(?! [0-9])(?![а-я])",
					"затраты? (на [а-я]+)? ?",
					"вложено ?", "проезда ?", "(?<![а-я])порядка(?![а-я])",
                    "(?<![а-я])м3[\/\\][а-я]+", "небольш[а-я]+",
                    "маленьк[а-я]+"],
                "new": ""
            },{
				"old": [" +"],
				"new": " "
			},{
                "old": ["взнос в снт(?![а-я]) ?",
                        "(подключ|оформл)ени[ея](?![а-я])( ?(электричества|газа|газоснабжения|воды|водоснабжения|водопровода|водоотведения|канализации|телефона|интернета))? ?",
                        "(?<![а-я])к (свету|газу) ?",
                        "коммунальные услуги(( голого)? участка)? ?",
						"(?<![а-я])квт за(?![а-я]) ?",
						"(?<![а-я])аванс(?![а-я]) ?",
						"(?<![а-я])залог(?![а-я]) ?",
						"электричество( от)?(?![а-я]) ?",
						"водо(снабжение|отведение)(?![а-я]) ?",
						"(?<![а-я])налог(и|а|ов)?( составля[ею]т)? ?",
						"(?<![а-я])такси(?![а-я]) ?",
						"обслуживание( территории) ?",
						"(расходы|услуги) ?",
                        "обустройства ?",
						"экономия( до) ?",
						"(?<![а-я])освещение(?![а-я]) ?"],
                "new": "взнос "
            },{
                "old": [" +"],
                "new": " "
            },{
				"old": ["(?<![а-я0-9])([0-9]{1,3}) ([0-9]{4})"],
				"new": "\\1\\2"
			},{
				"old": ["участок ?[0-9]+,?[0-9]*? сотка"],
				"new": "участок"
			},{
				"old": ["(?<![а-я])тр(?![а-я])"],
				"new": "тыс руб"
			},{
				"old": ["(?<![а-я])(стоимость|цена) со?( всеми )?взнос(?![а-я])"],
				"new": "цена"
			},{
				"old":["(?<![а-я])(стоимость|цена) ?, ?([0-9]+,?[0-9]*? ?(тыс|млн)) ?, ?"],
				"new": "цена \\2 "
			},{
				"old": ["(?<![0-9])([23456789]([0-9]+,?[0-9]*?)?|1[0-9]+,?[0-9]*?) ?сотка(?= ?[0-9])"],
				"new": ""
			},{
				"old": [" +"],
				"new": " "
			},{
                "old": ["(?<![а-я])без( учета)?( [а-я]+ и)? взнос"],
                "new": " "
            },{
                "old": ["участка со? (домом|(всеми )?постройками)"],
                "new": "участка"
            }
			]
		}
	},
	"regex": [
		{
			"name": "Цена объекта",
			"regex_filter": "(?<!квм )(?<!сотка )(?<!гектар )(?<!месяц )(?<!год )(?<!день )(?<!час )(?<!взнос )(?<![^а-я]на )(?<!\\+ )(?<![0-9],)(?<![0-9])[0-9]+,?[0-9]*? ?руб(?! ?(за|\/|в)? ?(1 ?)?(квм|сотка|гектар|месяц|год|день|час))",
            "regex_find": "(?<![0-9])[0-9]+,?[0-9]*?(?![0-9])",
            "min":10000,
			"type": "float"
		},{
			"name": "Цена объекта",
			"regex_filter": "(?<!квм )(?<!сотка )(?<!гектар )(?<!месяц )(?<!год )(?<!день )(?<!час )(?<![0-9],)(?<!взнос )(?<![^а-я]на )(?<!\\+ )(?<![0-9])[0-9]+,?[0-9]*? ?млн ?руб(?! ?(за|\/|в)? ?(1 ?)?(квм|сотка|гектар|месяц|год|день|час))",
			"regex_find": "(?<![0-9])[0-9]+,?[0-9]*?(?![0-9])",
			"type": "float",
			"multi": 1000000
		},{
			"name": "Цена объекта",
			"regex_filter": "(?<!квм )(?<!сотка )(?<!гектар )(?<!месяц )(?<!год )(?<!день )(?<!час )(?<!взнос )(?<![^а-я]на )(?<!\\+ )(?<![0-9],)(?<![0-9])[0-9]+,?[0-9]*? ?тыс ?руб(?! ?(за|\/|в)? ?(1 ?)?(квм|сотка|гектар|месяц|год|день|час))",
			"regex_find": "(?<![0-9])[0-9]+,?[0-9]*?(?![0-9])",
			"type": "float",
			"multi": 1000
		},{
			"name": "Цена объекта (без рублей)",
			"regex_filter": "(цена|стоимость) ?(объекта|продажи|аренды|участка|земли)? ?[\\-:]? ?((?<![а-я])от ?)?[0-9]+,?[0-9]*?(?![0-9])(?!,[0-9])(?!млн)(?!тыс)(?!руб)(?! млн)(?! тыс)(?! руб)(?! ?(за|\/|в)? ?(1 ?)?(квм|сотка|гектар|месяц|год|день|час))",
            "regex_find": "(?<![0-9])[0-9]+,?[0-9]*?(?![0-9])",
            "min": 10000,
			"type": "float"
		},{
			"name": "Цена объекта (без рублей)",
			"regex_filter": "(цена|стоимость) ?(объекта|продажи|аренды|участка|земли)? ?[\\-:]? ?((?<![а-я])(от|до) ?)?[0-9]+,?[0-9]*? тыс(?! руб)(?! ?(за|\/|в)? ?(1 ?)?(квм|сотка|гектар|месяц|год|день|час))",
			"regex_find": "(?<![0-9])[0-9]+,?[0-9]*?(?![0-9])",
            "type": "float",
            "min": 10000,
			"multi": 1000
		},{
			"name": "Цена объекта (без рублей)",
			"regex_filter": "(цена|стоимость) ?(объекта|продажи|аренды|участка|земли)?  ?[\\-:]? ?((?<![а-я])(от|до) ?)?[0-9]+,?[0-9]*? млн(?! руб)(?! ?(за|\/|в)? ?(1 ?)?(квм|сотка|гектар|месяц|год|день|час))",
			"regex_find": "(?<![0-9])[0-9]+,?[0-9]*?(?![0-9])",
            "type": "float",
            "min": 10000,
			"multi": 1000000
		},{
			"name": "Цена за м2",
			"regex_filter": "(?<!взнос )(?<![^а-я]на )(?<!\\+ )(?<![0-9])[0-9]+,?[0-9]*? ?(руб) ?(за|\/)? ?(?=(1 ?)?квм(?! ?(за|\/|в)? ?(1 ?)?(месяц|год)))",
			"regex_find": "(?<![0-9])[0-9]+,?[0-9]*?(?![0-9])",
			"type": "float"
		},{
			"name": "Цена за м2",
			"regex_filter": "(?<!взнос )(?<![^а-я]на )(?<!\\+ )(?<![0-9])[0-9]+,?[0-9]*? ?тыс ?(руб) ?(за|\/)? ?(?=(1 ?)?квм(?! ?(за|\/|в)? ?(1 ?)?(месяц|год)))",
			"regex_find": "(?<![0-9])[0-9]+,?[0-9]*?(?![0-9])",
			"type": "float",
			"multi": 1000
		},{
			"name": "Цена за м2 (в месяц)",
			"regex_filter": "(?<!взнос )(?<![^а-я]на )(?<!\\+ )(?<![0-9])[0-9]+,?[0-9]*? ?(руб) ?(за|\/)? ?(?=(1 ?)?квм ?(за|\/|в)? ?(1 ?)?месяц)",
			"regex_find": "(?<![0-9])[0-9]+,?[0-9]*?(?![0-9])",
			"type": "float"
		},{
			"name": "Цена за м2 (в месяц)",
			"regex_filter": "(?<!взнос )(?<![^а-я]на )(?<!\\+ )(?<![0-9])[0-9]+,?[0-9]*? ?тыс ?(руб) ?(за|\/)? ?(?=(1 ?)?квм ?(за|\/|в)? ?(1 ?)?месяц)",
			"regex_find": "(?<![0-9])[0-9]+,?[0-9]*?(?![0-9])",
			"type": "float",
			"multi": 1000
		},{
			"name": "Цена за м2 (в год)",
			"regex_filter": "(?<!взнос )(?<![^а-я]на )(?<!\\+ )(?<![0-9])[0-9]+,?[0-9]*? ?(руб) ?(за|\/)? ?(?=(1 ?)?квм ?(за|\/|в)? ?(1 ?)?год)",
			"regex_find": "(?<![0-9])[0-9]+,?[0-9]*?(?![0-9])",
			"type": "float"
		},{
			"name": "Цена за м2 (в год)",
			"regex_filter": "(?<!взнос )(?<![^а-я]на )(?<!\\+ )(?<![0-9])[0-9]+,?[0-9]*? ?тыс ?(руб) ?(за|\/)? ?(?=(1 ?)?квм ?(за|\/|в)? ?(1 ?)?год)",
			"regex_find": "(?<![0-9])[0-9]+,?[0-9]*?(?![0-9])",
			"type": "float",
			"multi": 1000
		},{
			"name": "Цена за м2 (без рублей)",
			"regex_filter": "(?<!взнос )(?<![^а-я]на )(?<!\\+ )(?<![0-9])[0-9]+,?[0-9]*? ?(за|\/) ?(?=(1 ?)?квм(?! ?(за|\/|в)? ?(1 ?)?(месяц|год)))",
			"regex_find": "(?<![0-9])[0-9]+,?[0-9]*?(?![0-9])",
			"type": "float"
		},{
			"name": "Цена за м2 (без рублей)",
			"regex_filter": "(?<!взнос )(?<![^а-я]на )(?<!\\+ )(?<![0-9])[0-9]+,?[0-9]*? ?тыс ? ?(за|\/) ?(?=(1 ?)?квм(?! ?(за|\/|в)? ?(1 ?)?(месяц|год)))",
			"regex_find": "(?<![0-9])[0-9]+,?[0-9]*?(?![0-9])",
			"type": "float",
			"multi": 1000
		},{
			"name": "Цена за м2 (без рублей, в месяц)",
			"regex_filter": "(?<!взнос )(?<![^а-я]на )(?<!\\+ )(?<![0-9])[0-9]+,?[0-9]*? ?(за|\/) ?(?=(1 ?)?квм ?(за|\/|в)? ?(1 ?)?месяц)",
			"regex_find": "(?<![0-9])[0-9]+,?[0-9]*?(?![0-9])",
			"type": "float"
		},{
			"name": "Цена за м2 (без рублей, в месяц)",
			"regex_filter": "(?<!взнос )(?<![^а-я]на )(?<!\\+ )(?<![0-9])[0-9]+,?[0-9]*? ?тыс ?(за|\/) ?(?=(1 ?)?квм ?(за|\/|в)? ?(1 ?)?месяц)",
			"regex_find": "(?<![0-9])[0-9]+,?[0-9]*?(?![0-9])",
			"type": "float",
			"multi": 1000
		},{
			"name": "Цена за м2 (без рублей, в год)",
			"regex_filter": "(?<!взнос )(?<![^а-я]на )(?<!\\+ )(?<![0-9])[0-9]+,?[0-9]*? ?(за|\/) ?(?=(1 ?)?квм ?(за|\/|в)? ?(1 ?)?год)",
			"regex_find": "(?<![0-9])[0-9]+,?[0-9]*?(?![0-9])",
			"type": "float"
		},{
			"name": "Цена за м2 (без рублей, в год)",
			"regex_filter": "(?<!взнос )(?<![^а-я]на )(?<!\\+ )(?<![0-9])[0-9]+,?[0-9]*? ?тыс ?(за|\/) ?(?=(1 ?)?квм ?(за|\/|в)? ?(1 ?)?год)",
			"regex_find": "(?<![0-9])[0-9]+,?[0-9]*?(?![0-9])",
			"type": "float",
			"multi": 1000
		},{
			"name": "Цена за м2 (сначала размерность)",
			"regex_filter": "(цена|стоимость) ?(продажи|участка|аренды|земли|объекта)? ?(за|\/)? ?(1 ?)?квм ?[\\-:]? ?(?<![0-9])((?<![а-я])(от|до) ?)?[0-9]+,?[0-9]*? ?(руб)?",
			"regex_find": "(?<![0-9])[0-9]+,?[0-9]*?(?![0-9])(?! квм)",
			"type": "float"
		},{
			"name": "Цена за м2 (сначала размерность)",
			"regex_filter": "(цена|стоимость) ?(продажи|участка|аренды|земли|объекта)? ?(за|\/)? ?(1 ?)?квм ?[\\-:]? ?(?<![0-9])((?<![а-я])(от|до) ?)?[0-9]+,?[0-9]*? ?тыс ?(руб)?",
			"regex_find": "(?<![0-9])[0-9]+,?[0-9]*?(?![0-9])(?! квм)",
			"type": "float",
			"multi": 1000
		},{
			"name": "Цена за м2 (сначала размерность)",
			"regex_filter": "(цена|стоимость) ?(продажи|участка|аренды|земли|объекта)? ?(за|\/)? ?(1 ?)?квм ?[\\-:]? ?(?<![0-9])((?<![а-я])(от|до) ?)?[0-9]+,?[0-9]*? ?млн ?(руб)?",
			"regex_find": "(?<![0-9])[0-9]+,?[0-9]*?(?![0-9])(?! квм)",
			"type": "float",
			"multi": 1000000
		},
		{
			"name": "Цена за сотку",
			"regex_filter": "(?<!взнос )(?<![^а-я]на )(?<!\\+ )(?<![0-9])[0-9]+,?[0-9]*? ?(руб) ?(за|\/)? ?(?=(1 ?)?сотка)",
			"regex_find": "(?<![0-9])[0-9]+,?[0-9]*?(?![0-9])",
			"type": "float"
		},{
			"name": "Цена за сотку",
			"regex_filter": "(?<!взнос )(?<![^а-я]на )(?<!\\+ )(?<![0-9])[0-9]+,?[0-9]*? ?тыс ?(руб) ?(за|\/)? ?(?=(1 ?)?сотка)",
			"regex_find": "(?<![0-9])[0-9]+,?[0-9]*?(?![0-9])",
			"type": "float",
			"multi": 1000
		},{
			"name": "Цена за сотку",
			"regex_filter": "(?<!взнос )(?<![^а-я]на )(?<!\\+ )(?<![0-9])[0-9]+,?[0-9]*? ?млн ?(руб) ?(за|\/)? ?(?=(1 ?)?сотка)",
			"regex_find": "(?<![0-9])[0-9]+,?[0-9]*?(?![0-9])",
			"type": "float",
			"multi": 1000000
		},{
			"name": "Цена за сотку (без рублей)",
			"regex_filter": "(?<!взнос )(?<![^а-я]на )(?<!\\+ )(?<![0-9])[0-9]+,?[0-9]*? ?(за|\/) ?(?=(1 ?)?сотка)",
			"regex_find": "(?<![0-9])[0-9]+,?[0-9]*?(?![0-9])",
			"type": "float"
		},{
			"name": "Цена за сотку (без рублей)",
			"regex_filter": "(?<!взнос )(?<![^а-я]на )(?<!\\+ )(?<![0-9])[0-9]+,?[0-9]*? ?тыс ?(за|\/) ?(?=(1 ?)?сотка)",
			"regex_find": "(?<![0-9])[0-9]+,?[0-9]*?(?![0-9])",
			"type": "float",
			"multi": 1000
		},{
			"name": "Цена за сотку (без рублей)",
			"regex_filter": "(?<!взнос )(?<![^а-я]на )(?<!\\+ )(?<![0-9])[0-9]+,?[0-9]*? ?млн ?(за|\/) ?(?=(1 ?)?сотка)",
			"regex_find": "(?<![0-9])[0-9]+,?[0-9]*?(?![0-9])",
			"type": "float",
			"multi": 1000000
		},{
			"name": "Цена за сотку (сначала размерность)",
			"regex_filter": "(цена|стоимость) ?(продажи|участка|аренды|земли|объекта)? ?(за|\/)? ?(1 ?)?сотка ?[\\-:]? ?(?<![0-9])((?<![а-я])(от|до) ?)?[0-9]+,?[0-9]*? ?(руб)?",
			"regex_find": "(?<![0-9])[0-9]+,?[0-9]*?(?![0-9])(?! сотка)",
			"type": "float"
		},{
			"name": "Цена за сотку (сначала размерность)",
			"regex_filter": "(цена|стоимость) ?(продажи|участка|аренды|земли|объекта)? ?(за|\/)? ?(1 ?)?сотка ?[\\-:]? ?(?<![0-9])((?<![а-я])(от|до) ?)?[0-9]+,?[0-9]*? ?тыс ?(руб)?",
			"regex_find": "(?<![0-9])[0-9]+,?[0-9]*?(?![0-9])(?! квм)",
			"type": "float",
			"multi": 1000
		},{
			"name": "Цена за сотку (сначала размерность)",
			"regex_filter": "(цена|стоимость) ?(продажи|участка|аренды|земли|объекта)? ?(за|\/)? ?(1 ?)?сотка ?[\\-:]? ?(?<![0-9])((?<![а-я])(от|до) ?)?[0-9]+,?[0-9]*? ?млн ?(руб)?",
			"regex_find": "(?<![0-9])[0-9]+,?[0-9]*?(?![0-9])(?! сотка)",
			"type": "float",
			"multi": 1000000
		}, {
			"name": "Цена за гектар",
			"regex_filter": "(?<!взнос )(?<![^а-я]на )(?<!\\+ )(?<![0-9])[0-9]+,?[0-9]*? ?(руб) ?(за|\/)? ?(?=(1 ?)?гектар)",
			"regex_find": "(?<![0-9])[0-9]+,?[0-9]*?(?![0-9])",
			"type": "float"
		},{
			"name": "Цена за гектар",
			"regex_filter": "(?<!взнос )(?<![^а-я]на )(?<!\\+ )(?<![0-9])[0-9]+,?[0-9]*? ?тыс ?(руб) ?(за|\/)? ?(?=(1 ?)?гектар)",
			"regex_find": "(?<![0-9])[0-9]+,?[0-9]*?(?![0-9])",
			"type": "float",
			"multi": 1000
		},{
			"name": "Цена за гектар",
			"regex_filter": "(?<!взнос )(?<![^а-я]на )(?<!\\+ )(?<![0-9])[0-9]+,?[0-9]*? ?млн ?(руб) ?(за|\/)? ?(?=(1 ?)?гектар)",
			"regex_find": "(?<![0-9])[0-9]+,?[0-9]*?(?![0-9])",
			"type": "float",
			"multi": 1000000
		},{
			"name": "Цена за гектар (без рублей)",
			"regex_filter": "(?<!взнос )(?<![^а-я]на )(?<!\\+ )(?<![0-9])[0-9]+,?[0-9]*? ?(за|\/) ?(?=(1 ?)?гектар)",
			"regex_find": "(?<![0-9])[0-9]+,?[0-9]*?(?![0-9])",
			"type": "float"
		},{
			"name": "Цена за гектар (без рублей)",
			"regex_filter": "(?<!взнос )(?<![^а-я]на )(?<!\\+ )(?<![0-9])[0-9]+,?[0-9]*? ?тыс ? ?(за|\/) ?(?=(1 ?)?гектар)",
			"regex_find": "(?<![0-9])[0-9]+,?[0-9]*?(?![0-9])",
			"type": "float",
			"multi": 1000
		},{
			"name": "Цена за гектар (без рублей)",
			"regex_filter": "(?<!взнос )(?<![^а-я]на )(?<!\\+ )(?<![0-9])[0-9]+,?[0-9]*? ?млн ? ?(за|\/) ?(?=(1 ?)?гектар)",
			"regex_find": "(?<![0-9])[0-9]+,?[0-9]*?(?![0-9])",
			"type": "float",
			"multi": 1000000
		},{
			"name": "Цена за гектар (сначала размерность)",
			"regex_filter": "(цена|стоимость) ?(продажи|участка|аренды|земли|объекта)? ?(за|\/)? ?(1 ?)?гектар ?[\\-:]? ?(?<![0-9])((?<![а-я])(от|до) ?)?[0-9]+,?[0-9]*? ?(руб)?",
			"regex_find": "(?<![0-9])[0-9]+,?[0-9]*?(?![0-9])(?! гектар)",
			"type": "float"
		},{
			"name": "Цена за гектар (сначала размерность)",
			"regex_filter": "(цена|стоимость) ?(продажи|участка|аренды|земли|объекта)? ?(за|\/)? ?(1 ?)?гектар ?[\\-:]? ?(?<![0-9])((?<![а-я])(от|до) ?)?[0-9]+,?[0-9]*? ?тыс ?(руб)?",
			"regex_find": "(?<![0-9])[0-9]+,?[0-9]*?(?![0-9])(?! гектар)",
			"type": "float",
			"multi": 1000
		},{
			"name": "Цена за гектар (сначала размерность)",
			"regex_filter": "(цена|стоимость) ?(продажи|участка|аренды|земли|объекта)? ?(за|\/)? ?(1 ?)?гектар ?[\\-:]? ?(?<![0-9])((?<![а-я])(от|до) ?)?[0-9]+,?[0-9]*? ?млн ?(руб)?",
			"regex_find": "(?<![0-9])[0-9]+,?[0-9]*?(?![0-9])(?! гектар)",
			"type": "float",
			"multi": 1000000
		},
		{
			"name": "Цена за месяц",
			"regex_filter": "(?<!взнос )(?<![^а-я]на )(?<!\\+ )(?<![0-9])[0-9]+,?[0-9]*? ?(руб) ?(за|\/|в)? ?(?=(1 ?)?месяц)",
			"regex_find": "(?<![0-9])[0-9]+,?[0-9]*?(?![0-9])",
			"type": "float"
		},{
			"name": "Цена за месяц",
			"regex_filter": "(?<!взнос )(?<![^а-я]на )(?<!\\+ )(?<![0-9])[0-9]+,?[0-9]*? ?тыс ?(руб) ?(за|\/|в)? ?(?=(1 ?)?месяц)",
			"regex_find": "(?<![0-9])[0-9]+,?[0-9]*?(?![0-9])",
			"type": "float",
			"multi": 1000
		},{
			"name": "Цена за месяц",
			"regex_filter": "(?<!взнос )(?<![^а-я]на )(?<!\\+ )(?<![0-9])[0-9]+,?[0-9]*? ?млн ?(руб) ?(за|\/|в)? ?(?=(1 ?)?месяц)",
			"regex_find": "(?<![0-9])[0-9]+,?[0-9]*?(?![0-9])",
			"type": "float",
			"multi": 1000000
		},{
			"name": "Цена за месяц (без рублей)",
			"regex_filter": "(?<!взнос )(?<![^а-я]на )(?<!\\+ )(?<![0-9])[0-9]+,?[0-9]*? ?(за|\/|в) ?(?=(1 ?)?месяц)",
			"regex_find": "(?<![0-9])[0-9]+,?[0-9]*?(?![0-9])",
			"type": "float"
		},{
			"name": "Цена за месяц (без рублей)",
			"regex_filter": "(?<!взнос )(?<![^а-я]на )(?<!\\+ )(?<![0-9])[0-9]+,?[0-9]*? ?тыс ?(за|\/|в) ?(?=(1 ?)?месяц)",
			"regex_find": "(?<![0-9])[0-9]+,?[0-9]*?(?![0-9])",
			"type": "float",
			"multi": 1000
		},{
			"name": "Цена за месяц (без рублей)",
			"regex_filter": "(?<!взнос )(?<![^а-я]на )(?<!\\+ )(?<![0-9])[0-9]+,?[0-9]*? ?млн ?(за|\/|в) ?(?=(1 ?)?месяц)",
			"regex_find": "(?<![0-9])[0-9]+,?[0-9]*?(?![0-9])",
			"type": "float",
			"multi": 1000000
		}, {
			"name": "Цена за месяц (сначала размерность)",
			"regex_filter": "(цена|стоимость) ?(продажи|участка|аренды|земли|объекта)? ?(за|\/|в)? ?(1 ?)?месяц ?[\\-:]? ?(?<![0-9])((?<![а-я])(от|до) ?)?[0-9]+,?[0-9]*? ?(руб)?",
			"regex_find": "(?<![0-9])[0-9]+,?[0-9]*?(?![0-9])(?! ?месяц)",
			"type": "float"
		},{
			"name": "Цена за месяц (сначала размерность)",
			"regex_filter": "(цена|стоимость) ?(продажи|участка|аренды|земли|объекта)? ?(за|\/|в)? ?(1 ?)?месяц ?[\\-:]? ?(?<![0-9])((?<![а-я])(от|до) ?)?[0-9]+,?[0-9]*? ?тыс ?(руб)?",
			"regex_find": "(?<![0-9])[0-9]+,?[0-9]*?(?![0-9])(?! ?месяц)",
			"type": "float",
			"multi": 1000
		},{
			"name": "Цена за месяц (сначала размерность)",
			"regex_filter": "(цена|стоимость) ?(продажи|участка|аренды|земли|объекта)? ?(за|\/|в)? ?(1 ?)?месяц ?[\\-:]? ?(?<![0-9])((?<![а-я])(от|до) ?)?[0-9]+,?[0-9]*? ?млн ?(руб)?",
			"regex_find": "(?<![0-9])[0-9]+,?[0-9]*?(?![0-9])(?! ?месяц)",
			"type": "float",
			"multi": 1000000
		},{
			"name": "Цена за год",
			"regex_filter": "(?<!взнос )(?<![^а-я]на )(?<!\\+ )(?<![0-9])[0-9]+,?[0-9]*? ?(руб) ?(за|\/|в)? ?(?=(1 ?)?год)",
			"regex_find": "(?<![0-9])[0-9]+,?[0-9]*?(?![0-9])",
			"type": "float"
		}, {
			"name": "Цена за год",
			"regex_filter": "(?<!взнос )(?<![^а-я]на )(?<!\\+ )(?<![0-9])[0-9]+,?[0-9]*? ?тыс ?(руб) ?(за|\/|в)? ?(?=(1 ?)?год)",
			"regex_find": "(?<![0-9])[0-9]+,?[0-9]*?(?![0-9])",
			"type": "float",
			"multi": 1000
		}, {
			"name": "Цена за год",
			"regex_filter": "(?<!взнос )(?<![^а-я]на )(?<!\\+ )(?<![0-9])[0-9]+,?[0-9]*? ?млн ?(руб) ?(за|\/|в)? ?(?=(1 ?)?год)",
			"regex_find": "(?<![0-9])[0-9]+,?[0-9]*?(?![0-9])",
			"type": "float",
			"multi": 1000000
		},{
			"name": "Цена за год (без рублей)",
			"regex_filter": "(?<!взнос )(?<![^а-я]на )(?<!\\+ )(?<![0-9])[0-9]+,?[0-9]*? ?(за|\/|в) ?(?=(1 ?)?год)",
			"regex_find": "(?<![0-9])[0-9]+,?[0-9]*?(?![0-9])",
			"type": "float"
		}, {
			"name": "Цена за год (без рублей)",
			"regex_filter": "(?<!взнос )(?<![^а-я]на )(?<!\\+ )(?<![0-9])[0-9]+,?[0-9]*? ?тыс ?(за|\/|в) ?(?=(1 ?)?год)",
			"regex_find": "(?<![0-9])[0-9]+,?[0-9]*?(?![0-9])",
			"type": "float",
			"multi": 1000
		}, {
			"name": "Цена за год (без рублей)",
			"regex_filter": "(?<!взнос )(?<![^а-я]на )(?<!\\+ )(?<![0-9])[0-9]+,?[0-9]*? ?млн ?(за|\/|в) ?(?=(1 ?)?год)",
			"regex_find": "(?<![0-9])[0-9]+,?[0-9]*?(?![0-9])",
			"type": "float",
			"multi": 1000000
		}, {
			"name": "Цена за год (сначала размерность)",
			"regex_filter": "(цена|стоимость) ?(продажи|участка|аренды|земли|объекта)? ?(за|\/|в)? ?(1 ?)?год ?[\\-:]? ?(?<![0-9])((?<![а-я])(от|до) ?)?[0-9]+,?[0-9]*? ?(руб)?",
			"regex_find": "(?<![0-9])[0-9]+,?[0-9]*?(?![0-9])(?! ?год)",
			"type": "float"
		},{
			"name": "Цена за год (сначала размерность)",
			"regex_filter": "(цена|стоимость) ?(продажи|участка|аренды|земли|объекта)? ?(за|\/|в)? ?(1 ?)?год ?[\\-:]? ?(?<![0-9])((?<![а-я])(от|до) ?)?[0-9]+,?[0-9]*? ?тыс ?(руб)?",
			"regex_find": "(?<![0-9])[0-9]+,?[0-9]*?(?![0-9])(?! ?год)",
			"type": "float",
			"multi": 1000
		},{
			"name": "Цена за год (сначала размерность)",
			"regex_filter": "(цена|стоимость) ?(продажи|участка|аренды|земли|объекта)? ?(за|\/|в)? ?(1 ?)?год ?[\\-:]? ?(?<![0-9])((?<![а-я])(от|до) ?)?[0-9]+,?[0-9]*? ?млн ?(руб)?",
			"regex_find": "(?<![0-9])[0-9]+,?[0-9]*?(?![0-9])(?! ?год)",
			"type": "float",
			"multi": 1000000
		},{
			"name": "Цена за час",
			"regex_filter": "(?<![0-9])[0-9]+,?[0-9]*? ?(руб) ?(за|\/|в)? ?(?=(1 ?)?час)",
			"regex_find": "(?<![0-9])[0-9]+,?[0-9]*?(?![0-9])",
			"type": "float"
		}, {
			"name": "Цена за час",
			"regex_filter": "(?<![0-9])[0-9]+,?[0-9]*? ?тыс ?(руб) ?(за|\/|в)? ?(?=(1 ?)?час)",
			"regex_find": "(?<![0-9])[0-9]+,?[0-9]*?(?![0-9])",
			"type": "float",
			"multi": 1000
		},{
			"name": "Цена за час (без рублей)",
			"regex_filter": "(?<![0-9])[0-9]+,?[0-9]*? ?(за|\/|в) ?(?=(1 ?)?час)",
			"regex_find": "(?<![0-9])[0-9]+,?[0-9]*?(?![0-9])",
			"type": "float"
		}, {
			"name": "Цена за час (без рублей)",
			"regex_filter": "(?<![0-9])[0-9]+,?[0-9]*? ?тыс ?(за|\/|в) ?(?=(1 ?)?час)",
			"regex_find": "(?<![0-9])[0-9]+,?[0-9]*?(?![0-9])",
			"type": "float",
			"multi": 1000
		},{
			"name": "Цена за час (сначала размерность)",
			"regex_filter": "(цена|стоимость) ?(продажи|участка|аренды|земли|объекта)? ?(за|\/|в)? ?(1 ?)?час ?[\\-:]? ?(?<![0-9])((?<![а-я])(от|до) ?)?[0-9]+,?[0-9]*? ?(руб)?",
			"regex_find": "(?<![0-9])[0-9]+,?[0-9]*?(?![0-9])(?! ?год)",
			"type": "float"
		},{
			"name": "Цена за час (сначала размерность)",
			"regex_filter": "(цена|стоимость) ?(продажи|участка|аренды|земли|объекта)? ?(за|\/|в)? ?(1 ?)?час ?[\\-:]? ?(?<![0-9])((?<![а-я])(от|до) ?)?[0-9]+,?[0-9]*? ?тыс ?(руб)?",
			"regex_find": "(?<![0-9])[0-9]+,?[0-9]*?(?![0-9])(?! ?час)",
			"type": "float",
			"multi": 1000
		}, {
			"name": "Цена за день",
			"regex_filter": "(?<!взнос )(?<![^а-я]на )(?<!\\+ )(?<![0-9])[0-9]+,?[0-9]*? ?(руб) ?(за|\/|в)? ?(?=(1 ?)?день)",
			"regex_find": "(?<![0-9])[0-9]+,?[0-9]*?(?![0-9])",
			"type": "float"
		}, {
			"name": "Цена за день",
			"regex_filter": "(?<!взнос )(?<![^а-я]на )(?<!\\+ )(?<![0-9])[0-9]+,?[0-9]*? ?тыс ?(руб) ?(за|\/|в)? ?(?=(1 ?)?день)",
			"regex_find": "(?<![0-9])[0-9]+,?[0-9]*?(?![0-9])",
			"type": "float",
			"multi": 1000
		},{
			"name": "Цена за день (без рублей)",
			"regex_filter": "(?<!взнос )(?<![^а-я]на )(?<!\\+ )(?<![0-9])[0-9]+,?[0-9]*? ?(за|\/|в) ?(?=(1 ?)?день)",
			"regex_find": "(?<![0-9])[0-9]+,?[0-9]*?(?![0-9])",
			"type": "float"
		}, {
			"name": "Цена за день (без рублей)",
			"regex_filter": "(?<!взнос )(?<![0-9])[0-9]+,?[0-9]*? ?тыс ?(за|\/|в) ?(?=(1 ?)?день)",
			"regex_find": "(?<![0-9])[0-9]+,?[0-9]*?(?![0-9])",
			"type": "float",
			"multi": 1000
		}, {
			"name": "Цена за день (сначала размерность)",
			"regex_filter": "(цена|стоимость) ?(продажи|участка|аренды|земли|объекта)? ?(за|\/|в)? ?(1 ?)?день ?[\\-:]? ?(?<![0-9])((?<![а-я])(от|до) ?)?[0-9]+,?[0-9]*? ?(руб)?",
			"regex_find": "(?<![0-9])[0-9]+,?[0-9]*?(?![0-9])(?! ?день)",
			"type": "float"
		},{
			"name": "Цена за день (сначала размерность)",
			"regex_filter": "(цена|стоимость) ?(продажи|участка|аренды|земли|объекта)? ?(за|\/|в)? ?(1 ?)?день ?[\\-:]? ?(?<![0-9])((?<![а-я])(от|до) ?)?[0-9]+,?[0-9]*? ?тыс ?(руб)?",
			"regex_find": "(?<![0-9])[0-9]+,?[0-9]*?(?![0-9])(?! ?день)",
			"type": "float",
			"multi": 1000
		}
	]
}