{
	"task": "temperature",
	"type": "get_str_from_text",
	"modf_text": {
		"low_case": true,
		"replace": {
			"standart": {
				"eng_rus": true,
				"str_int_to_int": true,
				"trim": true
			},
			"regex_replace": [{
					"old": ["ё"],
					"new": "е"
				}, {
					"old": ["(производстве[н]{1,2}о|)[\\s\\-]?складск(ое|ого|ом|ие|их|ими) помещени(е|ями|и|й|я)",
						"производстве[н]{1,2}(ое|ого|ом|ие|их|ими) помещени(е|ями|и|й|я)",
						"кирпичн(ый|ого|ом|ые|их|ими) склад(ах?|е|ы|й|)",
						"помещени(е|ями|и|й|я)", "ангар(а|е|)", "цех(а|е|)", "здани(е|ях|я|и)"
					],
					"new": " склад"

				},{
					"old": [":", "\\(", "\\)", "'", "\""],
					"new": " "
				},{	
					"old": ["\\s+"],
					"new": " "
				},				{
					"old": ["не "],
					"new": "не"
				},
				{
					"old": ["(?<=склад)(\\. |, |.|,)(?=хол|отопл|утеп|неотоп|мороз|cух|тепл)",
							"(?<=склады)(\\. |, |.|,)(?=хол|отопл|утеп|неотоп|мороз|cух|тепл)"],
					"new": " "
				},
				{
					"old": ["\\s+"],
					"new": " "
				}
			]
		}
	},
	"regex": [{
		"name": "Морозильник",
		"regex_find": "склад(а|ы|\\-|)\\-?\\s?морозильн|морозильн(ик(а|и|ов|)|ый|ого|ых|ая|ой|ые|ых|ое) (склад|камер)",
		"type": "string"
	}, {
		"name": "Мультитемпературный",
		"regex_find": "склад(а|ы|\\-|)\\s?мульти[\\-]?темпер|мульти[\\-]?температурн(ый|ого|ых|ая|ой|ые|ых|ое) склад",
		"type": "string"
	}, {
		"name": "Мультитемпературный",
		"regex_find": "регулируемы[йм] температурны[йм] режим|c тeмпературным peжимoм|регулировк(а|ой) температурного режима",
		"type": "string"
	}, {
		"name": "Неотапливаемый",
		"regex_find": "(не\\s?отапливаем|холодн|утепле[н]{1,2})(ый|ого|ые|их|ых|ое|ая|ой|ими|ыми|ым|им|ому|ом|ой)\\sсклад",
		"type": "string"
	}, {
		"name": "Неотапливаемый",
		"regex_find": "(отоплени|теплоснабжени)(е|я) (нет|отсутствует)",
		"type": "string"
	}, {
		"name": "Неотапливаемый",
		"regex_find": "(нет|отсутствует|без) (отоплени|теплоснабжени)|(\\s|,|\\.)утеплен|^утеплен",
		"type": "string"
	}, {
		"name": "Неотапливаемый",
		"regex_find": "не\\s?отаплива|\\sутеплен|^утеплен|не\\s?утеплен",
		"type": "string"
	}, {
		"name": "Неотапливаемый",
		"regex_find": "склад(а|ы|ов|)\\s(не\\s?отапливаем|холодн|утеплен)",
		"type": "string"
	}, {
		"name": "Отапливаемый",
		"regex_find": "склад(а|ы|ов|)\\s(отаплив|тепл|утеплен)",
		"type": "string"
	}, {
		"name": "Отапливаемый",
		"regex_find": "((\\.|,|\\-|:| )отапливаем|^отапливаем|тепл)(ый|ого|ые|их|ых|ое|ая|ой|ими|ыми|ым|им|ому|ом|ой)\\sсклад",
		"type": "string"
	}, {
		"name": "Отапливаемый",
		"regex_find": "((\\.|,|\\-|:| )отоплени|^отоплени|теплоснабжени)(е|я)\\-?\\s?(есть|име[ею]тся|сво[йя]|централ|автономн|автоматическ|водян|электро)",
		"type": "string"
	}, {
		"name": "Отапливаемый",
		"regex_find": "(есть|име[ею]тся|сво(й|я|ей)|централ(ьн(ое|ым|)|)|автономн(ое|ым|ого)|автоматическ(ое|им|ого)|водян(ое|им|ого)|электро|стоимость|газов(ая|ой|ые)|собстве[н]{1,2}(ая|ой|ые)) (отоплени|теплоснабжени|котельн)",
		"type": "string"
	}, {
		"name": "Отапливаемый",
		"regex_find": "котельн(ая|ой|ые) (сво(я|ей|и)|собстве[н]{1,2}(ая|ой|ые)|автоном(ая|ой|ые)|газов(ая|ой|ые))",
		"type": "string"
	}, {
		"name": "Отапливаемый",
		"regex_find": "(все|име[ею]тся|есть)\\s?(инженерные|) ко[м]{1,2}уникаци",
		"type": "string"
	}, {
		"name": "Отапливаемый",
		"regex_find": "центральные ко[м]{1,2}уникаци|коммуникации (все|)\\s?(есть|име[ею]тся)",
		"type": "string"
	}, {
		"name": "Отапливаемый",
		"regex_find": "отоплением? (центр|автономн)|(,|\\.|, |\\. )(отопление|отапливаем[оы][ей]|теплоснабжение|отапливается)(,|\\.| ,| \\.)",
		"type": "string"
	}, {
		"name": "Отапливаемый",
		"regex_find": " отаплив|^отаплив",
		"type": "string"
	}, {
		"name": "Сухой",
		"regex_find": "склад(а|ы|ов|) сух(ый|ого|ие|их|ых|ое|ая|ой|ими|ыми|ым|им|ому|ом|ой)",
		"type": "string"
	}, {
		"name": "Сухой",
		"regex_find": "сух(ый|ого|ие|их|ых|ое|ая|ой|ими|ыми|ым|им|ому|ом|ой)\\sсклад",
		"type": "string"
	}, {
		"name": "Холодильник",
		"regex_find": "склад(а|ы|\\-|)\\-?\\s?холодильник|холодильник(а|и|ов|\\-|)\\s?склад",
		"type": "string"
	}, {
		"name": "Холодильник",
		"regex_find": "холод(иль|)н(ая|ой|ые|ых|ыми)\\s(камер|установк)|(камер(а|е|ы|)|установк(а|е|и)) холод",
		"type": "string"
	}, {
		"name": "Холодильник",
		"regex_find": "(средне|низко)[\\s\\-]?температурн",
		"type": "string"
	}]
}